<svg xmlns="http://www.w3.org/2000/svg" width="23" height="21" viewBox="0 0 23 21">
  <text id="_" data-name="" transform="translate(0 18)" fill="#fff" font-size="20" font-family="FontAwesome5Free-Regular, 'Font Awesome 5 Free'" letter-spacing="0.01em"><tspan x="0" y="0"></tspan></text>
</svg>
