<svg xmlns="http://www.w3.org/2000/svg" width="22" height="22" viewBox="0 0 22 22">
  <text id="_" data-name="" transform="translate(0 19)" fill="#5fcbea" font-size="22" font-family="FontAwesome5Free-Regular, 'Font Awesome 5 Free'" letter-spacing="0.01em"><tspan x="0" y="0"></tspan></text>
</svg>
