<svg xmlns="http://www.w3.org/2000/svg" width="22.85" height="21.64" viewBox="0 0 22.85 21.64">
  <g id="Group_5" data-name="Group 5" transform="translate(-957 -564)">
    <g id="contact" transform="translate(957 569.362)">
      <path id="Path_3" data-name="Path 3" d="M20.47-5.25H2.38C1.066-5.249,0-3.881,0-2.194V13.334c0,1.688,1.066,3.056,2.38,3.056H20.47c1.314,0,2.38-1.369,2.38-3.056V-2.194C22.849-3.881,21.784-5.249,20.47-5.25ZM21.9,13.334a1.675,1.675,0,0,1-1.428,1.834H2.38A1.675,1.675,0,0,1,.952,13.334V-2.194A1.675,1.675,0,0,1,2.38-4.027H20.47A1.675,1.675,0,0,1,21.9-2.194Zm0,0" transform="translate(0 -0.112)" fill="#fff"/>
    </g>
    <g id="app" transform="translate(958.64 565.64)">
      <g id="Group_4" data-name="Group 4" transform="translate(2.36 2.36)">
        <g id="Group_3" data-name="Group 3">
          <path id="Path_7" data-name="Path 7" d="M5.66,0H1A1,1,0,0,0,0,1V5.66a1,1,0,0,0,1,1H5.66a1,1,0,0,0,1-1V1A1,1,0,0,0,5.66,0Zm.333,5.66a.333.333,0,0,1-.333.333H1A.333.333,0,0,1,.666,5.66V1A.333.333,0,0,1,1,.666H5.66A.333.333,0,0,1,5.993,1V5.66Z" transform="translate(0 0)" fill="#fff"/>
          <path id="Path_8" data-name="Path 8" d="M295.052,0h-4.661a1,1,0,0,0-1,1V5.66a1,1,0,0,0,1,1h4.661a1,1,0,0,0,1-1V1A1,1,0,0,0,295.052,0Zm.333,5.66a.333.333,0,0,1-.333.333h-4.661a.333.333,0,0,1-.333-.333V1a.333.333,0,0,1,.333-.333h4.661a.333.333,0,0,1,.333.333Z" transform="translate(-282.001 0)" fill="#fff"/>
          <path id="Path_9" data-name="Path 9" d="M5.66,289.391H1a1,1,0,0,0-1,1v4.661a1,1,0,0,0,1,1H5.66a1,1,0,0,0,1-1V290.39A1,1,0,0,0,5.66,289.391Zm.333,5.66a.333.333,0,0,1-.333.333H1a.333.333,0,0,1-.333-.333V290.39A.333.333,0,0,1,1,290.057H5.66a.333.333,0,0,1,.333.333v4.661Z" transform="translate(0 -282)" fill="#fff"/>
          <path id="Path_10" data-name="Path 10" d="M295.052,289.391h-4.661a1,1,0,0,0-1,1v4.661a1,1,0,0,0,1,1h4.661a1,1,0,0,0,1-1V290.39A1,1,0,0,0,295.052,289.391Zm.333,5.66a.333.333,0,0,1-.333.333h-4.661a.333.333,0,0,1-.333-.333V290.39a.333.333,0,0,1,.333-.333h4.661a.333.333,0,0,1,.333.333Z" transform="translate(-282.001 -282)" fill="#fff"/>
        </g>
      </g>
    </g>
  </g>
</svg>
